{
    "/js/appm.js": "/js/appm.js?id=19f0d259fe4d2fd69e0a",
    "/css/appm.css": "/css/appm.css?id=4b039748ba763f1c096e",
    "/js/auth.js": "/js/auth.js?id=ccf95eac1ec23b2794dd",
    "/js/resetpass.js": "/js/resetpass.js?id=639bb02d4be48f7af255",
    "/js/custom.js": "/js/custom.js?id=571cbd0ac37a7d939ac9",
    "/js/dashboard.js": "/js/dashboard.js?id=0214b568f9865b10b87a",
    "/js/tinymcem.js": "/js/tinymcem.js?id=881a4068e62398772ac4"
}
